#Firmware: MS2/Extra 3.4.0 release  20150710 09:00BST(c)KC/JSM/JB    uS
PriLevel,SecLevel,Trigger,Sync,ToothTime,Time
Flag,Flag,Flag,Flag,ms,ms
0.0,1.0,0.0,1.0,576.2546,576.2546
0.0,1.0,0.0,1.0,16.05912,592.3137
0.0,1.0,0.0,1.0,18.36516,610.6789
0.0,1.0,0.0,1.0,13.63956,624.3185
0.0,0.0,1.0,1.0,1.4421,625.76056
0.0,1.0,1.0,1.0,0.18084,625.9414
0.0,1.0,0.0,1.0,28.50672,654.4481
0.0,1.0,0.0,1.0,17.65566,672.10376
0.0,1.0,0.0,1.0,17.72694,689.8307
0.0,1.0,0.0,1.0,17.34084,707.1715
0.0,1.0,0.0,1.0,16.41816,723.58966
0.0,1.0,0.0,1.0,18.34272,741.9324
0.0,1.0,0.0,1.0,13.37622,755.3086
0.0,1.0,0.0,1.0,29.18916,784.49774
0.0,1.0,0.0,1.0,17.4438,801.9415
0.0,1.0,0.0,1.0,17.5857,819.5272
0.0,1.0,0.0,1.0,17.5032,837.0304
0.0,1.0,0.0,1.0,16.22148,853.2519
0.0,1.0,0.0,1.0,18.65688,871.90875
0.0,1.0,0.0,1.0,13.32804,885.2368
0.0,0.0,1.0,1.0,1.27182,886.5086
0.0,1.0,1.0,1.0,0.18018,886.6888
0.0,1.0,0.0,1.0,27.9906,914.6794
0.0,1.0,0.0,1.0,17.71374,932.3931
0.0,1.0,0.0,1.0,17.4801,949.8732
0.0,1.0,0.0,1.0,17.47284,967.34607
0.0,1.0,0.0,1.0,15.7707,983.11676
0.0,1.0,0.0,1.0,18.60672,1001.7235
0.0,1.0,0.0,1.0,13.21056,1014.9341
0.0,1.0,0.0,1.0,28.84794,1043.782
0.0,1.0,0.0,1.0,17.4141,1061.196
0.0,1.0,0.0,1.0,17.49,1078.686
0.0,1.0,0.0,1.0,17.6649,1096.351
0.0,1.0,0.0,1.0,16.01952,1112.3705
0.0,1.0,0.0,1.0,18.52686,1130.8973
0.0,1.0,0.0,1.0,13.36236,1144.2596
0.0,0.0,1.0,1.0,1.30746,1145.5671
0.0,1.0,1.0,1.0,0.18282,1145.75
0.0,1.0,0.0,1.0,28.01766,1173.7677
0.0,1.0,0.0,1.0,17.79228,1191.5599
0.0,1.0,0.0,1.0,17.47614,1209.0361
0.0,1.0,0.0,1.0,17.54082,1226.5769
0.0,1.0,0.0,1.0,16.26306,1242.84
0.0,1.0,0.0,1.0,18.24504,1261.085
0.0,1.0,0.0,1.0,13.45608,1274.541
0.0,1.0,0.0,1.0,29.43732,1303.9784
0.0,1.0,0.0,1.0,17.74476,1321.7231
0.0,1.0,0.0,1.0,17.48208,1339.2052
0.0,1.0,0.0,1.0,17.74938,1356.9546
0.0,1.0,0.0,1.0,15.96606,1372.9207
0.0,1.0,0.0,1.0,18.55458,1391.4752
0.0,1.0,0.0,1.0,13.4772,1404.9524
0.0,0.0,1.0,1.0,1.40448,1406.3569
0.0,1.0,1.0,1.0,0.1815,1406.5385
0.0,1.0,0.0,1.0,28.2579,1434.7964
0.0,1.0,0.0,1.0,17.70648,1452.5028
0.0,1.0,0.0,1.0,17.7309,1470.2338
0.0,1.0,0.0,1.0,17.50122,1487.735
0.0,1.0,0.0,1.0,16.4868,1504.2218
0.0,1.0,0.0,1.0,18.52686,1522.7487
0.0,1.0,0.0,1.0,13.39008,1536.1388
0.0,1.0,0.0,1.0,29.2413,1565.3801
0.0,1.0,0.0,1.0,17.721,1583.1011
0.0,1.0,0.0,1.0,17.61276,1600.7139
0.0,1.0,0.0,1.0,17.8167,1618.5305
0.0,1.0,0.0,1.0,15.92514,1634.4557
0.0,1.0,0.0,1.0,18.81396,1653.2697
0.0,1.0,0.0,1.0,13.37688,1666.6465
0.0,0.0,1.0,1.0,1.39524,1668.0417
0.0,1.0,1.0,1.0,0.18216,1668.2239
0.0,1.0,0.0,1.0,28.01436,1696.2383
0.0,1.0,0.0,1.0,17.97774,1714.2161
0.0,1.0,0.0,1.0,17.59494,1731.811
0.0,1.0,0.0,1.0,17.76588,1749.5769
0.0,1.0,0.0,1.0,15.73638,1765.3132
0.0,1.0,0.0,1.0,19.22976,1784.543
0.0,1.0,0.0,1.0,13.13532,1797.6783
0.0,1.0,0.0,1.0,28.71594,1826.3943
0.0,1.0,0.0,1.0,17.424,1843.8182
0.0,1.0,0.0,1.0,17.688,1861.5062
0.0,1.0,0.0,1.0,17.95068,1879.4569
0.0,1.0,0.0,1.0,16.04658,1895.5035
0.0,1.0,0.0,1.0,18.80142,1914.3049
0.0,1.0,0.0,1.0,13.4112,1927.7162
0.0,0.0,1.0,1.0,1.40976,1929.126
0.0,1.0,1.0,1.0,0.18018,1929.3062
0.0,1.0,0.0,1.0,28.18266,1957.4888
0.0,1.0,0.0,1.0,17.96652,1975.4553
0.0,1.0,0.0,1.0,17.7771,1993.2324
0.0,1.0,0.0,1.0,17.66622,2010.8987
0.0,1.0,0.0,1.0,16.1733,2027.072
0.0,1.0,0.0,1.0,18.92814,2046.0001
0.0,1.0,0.0,1.0,13.32144,2059.3215
0.0,1.0,0.0,1.0,29.18388,2088.5054
0.0,1.0,0.0,1.0,17.73948,2106.2449
0.0,1.0,0.0,1.0,17.73552,2123.9805
0.0,1.0,0.0,1.0,17.9916,2141.9722
0.0,1.0,0.0,1.0,16.02876,2158.001
0.0,1.0,0.0,1.0,19.18092,2177.182
0.0,1.0,0.0,1.0,13.3683,2190.5503
0.0,0.0,1.0,1.0,1.39524,2191.9456
0.0,1.0,1.0,1.0,0.1815,2192.127
0.0,1.0,0.0,1.0,28.0533,2220.1802
0.0,1.0,0.0,1.0,17.9949,2238.175
0.0,1.0,0.0,1.0,17.8596,2256.0347
0.0,1.0,0.0,1.0,17.74212,2273.7769
0.0,1.0,0.0,1.0,16.32972,2290.1067
0.0,1.0,0.0,1.0,18.76776,2308.8745
0.0,1.0,0.0,1.0,13.48644,2322.3608
0.0,1.0,0.0,1.0,29.58252,2351.9434
0.0,1.0,0.0,1.0,17.78502,2369.7283
0.0,1.0,0.0,1.0,17.93946,2387.6677
0.0,1.0,0.0,1.0,17.82924,2405.497
0.0,1.0,0.0,1.0,16.94286,2422.44
0.0,1.0,0.0,1.0,18.58164,2441.0215
0.0,1.0,0.0,1.0,13.49304,2454.5144
0.0,0.0,1.0,1.0,1.42428,2455.9387
0.0,1.0,1.0,1.0,0.18084,2456.1196
0.0,1.0,0.0,1.0,28.24866,2484.3684
0.0,1.0,0.0,1.0,17.9223,2502.2908
0.0,1.0,0.0,1.0,17.94078,2520.2314
0.0,1.0,0.0,1.0,17.7408,2537.9722
0.0,1.0,0.0,1.0,16.88874,2554.8608
0.0,1.0,0.0,1.0,18.3843,2573.245
0.0,1.0,0.0,1.0,13.85934,2587.1045
0.0,1.0,0.0,1.0,30.50718,2617.6116
0.0,1.0,0.0,1.0,17.82264,2635.4343
0.0,1.0,0.0,1.0,18.1203,2653.5547
0.0,1.0,0.0,1.0,17.82462,2671.3794
0.0,1.0,0.0,1.0,17.4207,2688.8
0.0,1.0,0.0,1.0,18.28068,2707.0808
0.0,1.0,0.0,1.0,13.91544,2720.9963
0.0,0.0,1.0,1.0,1.62822,2722.6245
0.0,1.0,1.0,1.0,0.18018,2722.8047
0.0,1.0,0.0,1.0,29.22348,2752.028
0.0,1.0,0.0,1.0,17.9553,2769.9834
0.0,1.0,0.0,1.0,18.21996,2788.2034
0.0,1.0,0.0,1.0,17.63784,2805.8413
0.0,1.0,0.0,1.0,16.7409,2822.5823
0.0,1.0,0.0,1.0,18.78492,2841.3672
0.0,1.0,0.0,1.0,13.54056,2854.9077
0.0,1.0,0.0,1.0,29.72508,2884.6328
0.0,1.0,0.0,1.0,17.94606,2902.5789
0.0,1.0,0.0,1.0,17.92824,2920.507
0.0,1.0,0.0,1.0,17.9355,2938.4426
0.0,1.0,0.0,1.0,16.38252,2954.8252
0.0,1.0,0.0,1.0,18.85488,2973.6802
0.0,1.0,0.0,1.0,13.60722,2987.2874
0.0,0.0,1.0,1.0,1.47048,2988.7578
0.0,1.0,1.0,1.0,0.1815,2988.9392
0.0,1.0,0.0,1.0,28.6143,3017.5535
0.0,1.0,0.0,1.0,17.90316,3035.4565
0.0,1.0,0.0,1.0,18.22326,3053.6797
0.0,1.0,0.0,1.0,17.79096,3071.4707
0.0,1.0,0.0,1.0,17.54874,3089.0195
0.0,1.0,0.0,1.0,18.26484,3107.2844
0.0,1.0,0.0,1.0,14.01972,3121.3042
0.0,1.0,0.0,1.0,30.85236,3152.1565
0.0,1.0,0.0,1.0,17.8596,3170.016
0.0,1.0,0.0,1.0,18.3249,3188.341
0.0,1.0,0.0,1.0,17.87808,3206.2192
0.0,1.0,0.0,1.0,17.41014,3223.6294
0.0,1.0,0.0,1.0,18.43578,3242.0652
0.0,1.0,0.0,1.0,13.96098,3256.0261
0.0,0.0,1.0,1.0,1.69884,3257.7249
0.0,1.0,1.0,1.0,0.18216,3257.907
0.0,1.0,0.0,1.0,29.29674,3287.2036
0.0,1.0,0.0,1.0,17.97246,3305.176
0.0,1.0,0.0,1.0,18.38364,3323.5596
0.0,1.0,0.0,1.0,17.69922,3341.2588
0.0,1.0,0.0,1.0,17.40948,3358.6682
0.0,1.0,0.0,1.0,18.54732,3377.2156
0.0,1.0,0.0,1.0,13.84482,3391.0603
0.0,1.0,0.0,1.0,30.4458,3421.506
0.0,1.0,0.0,1.0,18.04572,3439.5518
0.0,1.0,0.0,1.0,18.20478,3457.7566
0.0,1.0,0.0,1.0,17.79624,3475.5527
0.0,1.0,0.0,1.0,16.81416,3492.367
0.0,1.0,0.0,1.0,18.82584,3511.1929
0.0,1.0,0.0,1.0,13.69566,3524.8884
0.0,0.0,1.0,1.0,1.5873,3526.4758
0.0,1.0,1.0,1.0,0.18084,3526.6567
0.0,1.0,0.0,1.0,28.7133,3555.37
0.0,1.0,0.0,1.0,18.27672,3573.6467
0.0,1.0,0.0,1.0,18.15528,3591.802
0.0,1.0,0.0,1.0,17.84574,3609.6477
0.0,1.0,0.0,1.0,16.80228,3626.45
0.0,1.0,0.0,1.0,18.64236,3645.0923
0.0,1.0,0.0,1.0,13.77222,3658.8645
0.0,1.0,0.0,1.0,30.30918,3689.1736
0.0,1.0,0.0,1.0,18.14274,3707.3164
0.0,1.0,0.0,1.0,18.1566,3725.473
0.0,1.0,0.0,1.0,17.9025,3743.3755
0.0,1.0,0.0,1.0,16.85772,3760.2332
0.0,1.0,0.0,1.0,18.67008,3778.9033
0.0,1.0,0.0,1.0,13.91478,3792.818
0.0,0.0,1.0,1.0,1.66452,3794.4827
0.0,1.0,1.0,1.0,0.18216,3794.6648
0.0,1.0,0.0,1.0,29.28618,3823.951
0.0,1.0,0.0,1.0,17.91108,3841.862
0.0,1.0,0.0,1.0,18.4206,3860.2827
0.0,1.0,0.0,1.0,18.14274,3878.4255
0.0,1.0,0.0,1.0,17.87214,3896.2976
0.0,1.0,0.0,1.0,18.21138,3914.509
0.0,1.0,0.0,1.0,14.33124,3928.8403
0.0,1.0,0.0,1.0,31.76382,3960.6042
0.0,1.0,0.0,1.0,17.87808,3978.4824
0.0,1.0,0.0,1.0,18.53478,3997.017
0.0,1.0,0.0,1.0,18.11436,4015.1313
0.0,1.0,0.0,1.0,17.7441,4032.8755
0.0,1.0,0.0,1.0,18.3216,4051.197
0.0,1.0,0.0,1.0,14.3055,4065.5024
0.0,0.0,1.0,1.0,1.77276,4067.2751
0.0,1.0,1.0,1.0,0.18282,4067.458
0.0,1.0,0.0,1.0,30.1422,4097.6
0.0,1.0,0.0,1.0,17.88006,4115.48
0.0,1.0,0.0,1.0,18.70638,4134.1865
0.0,1.0,0.0,1.0,17.85432,4152.041
0.0,1.0,0.0,1.0,17.64972,4169.691
0.0,1.0,0.0,1.0,18.28992,4187.981
0.0,1.0,0.0,1.0,14.72988,4202.711
0.0,1.0,0.0,1.0,32.83236,4235.5435
0.0,1.0,0.0,1.0,17.3646,4252.908
0.0,1.0,0.0,1.0,18.62982,4271.538
0.0,1.0,0.0,1.0,18.36978,4289.9077
0.0,1.0,0.0,1.0,17.33292,4307.2407
0.0,1.0,0.0,1.0,18.62718,4325.8677
0.0,1.0,0.0,1.0,14.02962,4339.8975
0.0,0.0,1.0,1.0,1.64076,4341.538
0.0,1.0,1.0,1.0,0.1815,4341.7197
0.0,1.0,0.0,1.0,29.53104,4371.251
0.0,1.0,0.0,1.0,18.12558,4389.3765
0.0,1.0,0.0,1.0,18.50574,4407.8823
0.0,1.0,0.0,1.0,18.02394,4425.9062
0.0,1.0,0.0,1.0,18.02988,4443.936
0.0,1.0,0.0,1.0,18.38034,4462.3164
0.0,1.0,0.0,1.0,14.25468,4476.5713
0.0,1.0,0.0,1.0,31.5711,4508.1426
0.0,1.0,0.0,1.0,17.95794,4526.1006
0.0,1.0,0.0,1.0,18.5625,4544.663
0.0,1.0,0.0,1.0,18.02196,4562.685
0.0,1.0,0.0,1.0,17.52696,4580.212
0.0,1.0,0.0,1.0,18.65358,4598.8657
0.0,1.0,0.0,1.0,13.9887,4612.8545
0.0,0.0,1.0,1.0,1.63482,4614.4893
0.0,1.0,1.0,1.0,0.17952,4614.669
0.0,1.0,0.0,1.0,29.41818,4644.087
0.0,1.0,0.0,1.0,18.24174,4662.3286
0.0,1.0,0.0,1.0,18.52422,4680.853
0.0,1.0,0.0,1.0,17.9289,4698.7817
0.0,1.0,0.0,1.0,17.40552,4716.1875
0.0,1.0,0.0,1.0,18.51498,4734.7026
0.0,1.0,0.0,1.0,14.32794,4749.031
0.0,1.0,0.0,1.0,31.79484,4780.8257
0.0,1.0,0.0,1.0,17.86752,4798.6934
0.0,1.0,0.0,1.0,18.6054,4817.299
0.0,1.0,0.0,1.0,18.2523,4835.5513
0.0,1.0,0.0,1.0,17.86884,4853.42
0.0,1.0,0.0,1.0,18.53214,4871.952
0.0,1.0,0.0,1.0,14.14512,4886.097
0.0,0.0,1.0,1.0,1.62228,4887.719
0.0,1.0,1.0,1.0,0.18018,4887.8994
0.0,1.0,0.0,1.0,29.8617,4917.761
0.0,1.0,0.0,1.0,18.0741,4935.8354
0.0,1.0,0.0,1.0,18.64566,4954.481
0.0,1.0,0.0,1.0,18.03978,4972.5205
0.0,1.0,0.0,1.0,17.72892,4990.2495
0.0,1.0,0.0,1.0,18.60078,5008.85
0.0,1.0,0.0,1.0,14.08242,5022.9326
0.0,1.0,0.0,1.0,31.08402,5054.0166
0.0,1.0,0.0,1.0,18.31236,5072.329
0.0,1.0,0.0,1.0,18.48198,5090.811
0.0,1.0,0.0,1.0,18.07344,5108.8843
0.0,1.0,0.0,1.0,17.5164,5126.401
0.0,1.0,0.0,1.0,18.73146,5145.1323
0.0,1.0,0.0,1.0,14.00322,5159.1357
0.0,0.0,1.0,1.0,1.63416,5160.77
0.0,1.0,1.0,1.0,0.17952,5160.9497
0.0,1.0,0.0,1.0,29.53896,5190.489
0.0,1.0,0.0,1.0,18.33084,5208.82
0.0,1.0,0.0,1.0,18.645,5227.465
0.0,1.0,0.0,1.0,17.91372,5245.3784
0.0,1.0,0.0,1.0,17.20686,5262.5854
0.0,1.0,0.0,1.0,18.78492,5281.3706
0.0,1.0,0.0,1.0,14.04018,5295.4106
0.0,1.0,0.0,1.0,31.01208,5326.423
0.0,1.0,0.0,1.0,18.2589,5344.6816
0.0,1.0,0.0,1.0,18.53346,5363.2153
0.0,1.0,0.0,1.0,18.11766,5381.333
0.0,1.0,0.0,1.0,17.6616,5398.9946
0.0,1.0,0.0,1.0,18.66348,5417.658
0.0,1.0,0.0,1.0,14.16822,5431.8267
0.0,0.0,1.0,1.0,1.71072,5433.5376
0.0,1.0,1.0,1.0,0.18084,5433.7183
0.0,1.0,0.0,1.0,29.96004,5463.678
0.0,1.0,0.0,1.0,17.93682,5481.615
0.0,1.0,0.0,1.0,18.70374,5500.319
0.0,1.0,0.0,1.0,18.40146,5518.72
0.0,1.0,0.0,1.0,17.8299,5536.5503
0.0,1.0,0.0,1.0,18.68196,5555.2324
0.0,1.0,0.0,1.0,14.09232,5569.3247
0.0,1.0,0.0,1.0,31.12626,5600.451
0.0,1.0,0.0,1.0,18.25032,5618.7017
0.0,1.0,0.0,1.0,18.59088,5637.2925
0.0,1.0,0.0,1.0,18.11832,5655.4106
0.0,1.0,0.0,1.0,17.5164,5672.9272
0.0,1.0,0.0,1.0,18.78162,5691.709
0.0,1.0,0.0,1.0,14.14248,5705.8516
0.0,0.0,1.0,1.0,1.65924,5707.5107
0.0,1.0,1.0,1.0,0.18018,5707.691
0.0,1.0,0.0,1.0,29.93826,5737.6294
0.0,1.0,0.0,1.0,17.94804,5755.5776
0.0,1.0,0.0,1.0,18.6681,5774.2456
0.0,1.0,0.0,1.0,18.40872,5792.6543
0.0,1.0,0.0,1.0,17.98368,5810.638
0.0,1.0,0.0,1.0,18.7374,5829.3755
0.0,1.0,0.0,1.0,13.8765,5843.252
0.0,1.0,0.0,1.0,30.51048,5873.762
0.0,1.0,0.0,1.0,18.30312,5892.0654
0.0,1.0,0.0,1.0,18.40608,5910.4717
0.0,1.0,0.0,1.0,18.19356,5928.665
0.0,1.0,0.0,1.0,17.58174,5946.2466
0.0,1.0,0.0,1.0,18.70704,5964.9536
0.0,1.0,0.0,1.0,14.289,5979.2427
0.0,0.0,1.0,1.0,1.74438,5980.987
0.0,1.0,1.0,1.0,0.18018,5981.167
0.0,1.0,0.0,1.0,30.2346,6011.4014
0.0,1.0,0.0,1.0,18.1467,6029.548
0.0,1.0,0.0,1.0,18.7902,6048.338
0.0,1.0,0.0,1.0,18.21534,6066.553
0.0,1.0,0.0,1.0,18.25494,6084.808
0.0,1.0,0.0,1.0,18.57834,6103.386
0.0,1.0,0.0,1.0,14.31078,6117.697
0.0,1.0,0.0,1.0,31.74534,6149.442
0.0,1.0,0.0,1.0,18.24174,6167.6836
0.0,1.0,0.0,1.0,18.73344,6186.417
0.0,1.0,0.0,1.0,18.22326,6204.64
0.0,1.0,0.0,1.0,17.84178,6222.482
0.0,1.0,0.0,1.0,18.76314,6241.245
0.0,1.0,0.0,1.0,14.19594,6255.441
0.0,0.0,1.0,1.0,1.58004,6257.021
MARK 000
